…
## `select()`

1. Make a data frame containing the columns `year`, `lifeExp`, `country` from 
the `gapminder` data, in that order.


```r
select(gapminder, year, lifeExp, country)
```

```
## # A tibble: 1,704 x 3
##     year lifeExp country    
##    <int>   <dbl> <fct>      
##  1  1952    28.8 Afghanistan
##  2  1957    30.3 Afghanistan
##  3  1962    32.0 Afghanistan
##  4  1967    34.0 Afghanistan
##  5  1972    36.1 Afghanistan
##  6  1977    38.4 Afghanistan
##  7  1982    39.9 Afghanistan
##  8  1987    40.8 Afghanistan
##  9  1992    41.7 Afghanistan
## 10  1997    41.8 Afghanistan
## # ... with 1,694 more rows
```

2. Select all variables, from `country` to `lifeExp`.


```r
# This will work:
select(gapminder, country, continent, year, lifeExp)
```

```
## # A tibble: 1,704 x 4
##    country     continent  year lifeExp
##    <fct>       <fct>     <int>   <dbl>
##  1 Afghanistan Asia       1952    28.8
##  2 Afghanistan Asia       1957    30.3
##  3 Afghanistan Asia       1962    32.0
##  4 Afghanistan Asia       1967    34.0
##  5 Afghanistan Asia       1972    36.1
##  6 Afghanistan Asia       1977    38.4
##  7 Afghanistan Asia       1982    39.9
##  8 Afghanistan Asia       1987    40.8
##  9 Afghanistan Asia       1992    41.7
## 10 Afghanistan Asia       1997    41.8
## # ... with 1,694 more rows
```

```r
# Better way:
select(gapminder, country:lifeExp)
```

```
## # A tibble: 1,704 x 4
##    country     continent  year lifeExp
##    <fct>       <fct>     <int>   <dbl>
##  1 Afghanistan Asia       1952    28.8
##  2 Afghanistan Asia       1957    30.3
##  3 Afghanistan Asia       1962    32.0
##  4 Afghanistan Asia       1967    34.0
##  5 Afghanistan Asia       1972    36.1
##  6 Afghanistan Asia       1977    38.4
##  7 Afghanistan Asia       1982    39.9
##  8 Afghanistan Asia       1987    40.8
##  9 Afghanistan Asia       1992    41.7
## 10 Afghanistan Asia       1997    41.8
## # ... with 1,694 more rows
```

3. Select all variables, except `lifeExp`.


```r
select(gapminder, -lifeExp)
```

```
## # A tibble: 1,704 x 5
##    country     continent  year      pop gdpPercap
##    <fct>       <fct>     <int>    <int>     <dbl>
##  1 Afghanistan Asia       1952  8425333      779.
##  2 Afghanistan Asia       1957  9240934      821.
##  3 Afghanistan Asia       1962 10267083      853.
##  4 Afghanistan Asia       1967 11537966      836.
##  5 Afghanistan Asia       1972 13079460      740.
##  6 Afghanistan Asia       1977 14880372      786.
##  7 Afghanistan Asia       1982 12881816      978.
##  8 Afghanistan Asia       1987 13867957      852.
##  9 Afghanistan Asia       1992 16317921      649.
## 10 Afghanistan Asia       1997 22227415      635.
## # ... with 1,694 more rows
```

4. Put `continent` first. Hint: use the `everything()` function.


```r
select(gapminder, continent, everything())
```

```
## # A tibble: 1,704 x 6
##    continent country      year lifeExp      pop gdpPercap
##    <fct>     <fct>       <int>   <dbl>    <int>     <dbl>
##  1 Asia      Afghanistan  1952    28.8  8425333      779.
##  2 Asia      Afghanistan  1957    30.3  9240934      821.
##  3 Asia      Afghanistan  1962    32.0 10267083      853.
##  4 Asia      Afghanistan  1967    34.0 11537966      836.
##  5 Asia      Afghanistan  1972    36.1 13079460      740.
##  6 Asia      Afghanistan  1977    38.4 14880372      786.
##  7 Asia      Afghanistan  1982    39.9 12881816      978.
##  8 Asia      Afghanistan  1987    40.8 13867957      852.
##  9 Asia      Afghanistan  1992    41.7 16317921      649.
## 10 Asia      Afghanistan  1997    41.8 22227415      635.
## # ... with 1,694 more rows
```

5. Rename `continent` to `cont`.


```r
# compare
select(gapminder, cont = continent)
```

```
## # A tibble: 1,704 x 1
##    cont 
##    <fct>
##  1 Asia 
##  2 Asia 
##  3 Asia 
##  4 Asia 
##  5 Asia 
##  6 Asia 
##  7 Asia 
##  8 Asia 
##  9 Asia 
## 10 Asia 
## # ... with 1,694 more rows
```

```r
rename(gapminder, cont = continent)
```

```
## # A tibble: 1,704 x 6
##    country     cont   year lifeExp      pop gdpPercap
##    <fct>       <fct> <int>   <dbl>    <int>     <dbl>
##  1 Afghanistan Asia   1952    28.8  8425333      779.
##  2 Afghanistan Asia   1957    30.3  9240934      821.
##  3 Afghanistan Asia   1962    32.0 10267083      853.
##  4 Afghanistan Asia   1967    34.0 11537966      836.
##  5 Afghanistan Asia   1972    36.1 13079460      740.
##  6 Afghanistan Asia   1977    38.4 14880372      786.
##  7 Afghanistan Asia   1982    39.9 12881816      978.
##  8 Afghanistan Asia   1987    40.8 13867957      852.
##  9 Afghanistan Asia   1992    41.7 16317921      649.
## 10 Afghanistan Asia   1997    41.8 22227415      635.
## # ... with 1,694 more rows
```


## `arrange()`

1. Order by year.


```r
arrange(gapminder, year)
```

```
## # A tibble: 1,704 x 6
##    country     continent  year lifeExp      pop gdpPercap
##    <fct>       <fct>     <int>   <dbl>    <int>     <dbl>
##  1 Afghanistan Asia       1952    28.8  8425333      779.
##  2 Albania     Europe     1952    55.2  1282697     1601.
##  3 Algeria     Africa     1952    43.1  9279525     2449.
##  4 Angola      Africa     1952    30.0  4232095     3521.
##  5 Argentina   Americas   1952    62.5 17876956     5911.
##  6 Australia   Oceania    1952    69.1  8691212    10040.
##  7 Austria     Europe     1952    66.8  6927772     6137.
##  8 Bahrain     Asia       1952    50.9   120447     9867.
##  9 Bangladesh  Asia       1952    37.5 46886859      684.
## 10 Belgium     Europe     1952    68    8730405     8343.
## # ... with 1,694 more rows
```

2. Order by year, in descending order.


```r
arrange(gapminder, desc(year))
```

```
## # A tibble: 1,704 x 6
##    country     continent  year lifeExp       pop gdpPercap
##    <fct>       <fct>     <int>   <dbl>     <int>     <dbl>
##  1 Afghanistan Asia       2007    43.8  31889923      975.
##  2 Albania     Europe     2007    76.4   3600523     5937.
##  3 Algeria     Africa     2007    72.3  33333216     6223.
##  4 Angola      Africa     2007    42.7  12420476     4797.
##  5 Argentina   Americas   2007    75.3  40301927    12779.
##  6 Australia   Oceania    2007    81.2  20434176    34435.
##  7 Austria     Europe     2007    79.8   8199783    36126.
##  8 Bahrain     Asia       2007    75.6    708573    29796.
##  9 Bangladesh  Asia       2007    64.1 150448339     1391.
## 10 Belgium     Europe     2007    79.4  10392226    33693.
## # ... with 1,694 more rows
```

3. Order by year, then by life expectancy.


```r
arrange(gapminder, year, lifeExp)
```

```
## # A tibble: 1,704 x 6
##    country       continent  year lifeExp     pop gdpPercap
##    <fct>         <fct>     <int>   <dbl>   <int>     <dbl>
##  1 Afghanistan   Asia       1952    28.8 8425333      779.
##  2 Gambia        Africa     1952    30    284320      485.
##  3 Angola        Africa     1952    30.0 4232095     3521.
##  4 Sierra Leone  Africa     1952    30.3 2143249      880.
##  5 Mozambique    Africa     1952    31.3 6446316      469.
##  6 Burkina Faso  Africa     1952    32.0 4469979      543.
##  7 Guinea-Bissau Africa     1952    32.5  580653      300.
##  8 Yemen, Rep.   Asia       1952    32.5 4963829      782.
##  9 Somalia       Africa     1952    33.0 2526994     1136.
## 10 Guinea        Africa     1952    33.6 2664249      510.
## # ... with 1,694 more rows
```
…
### tidyverse method

Now using with pipes:


```r
# alter the below to include 2 "pipes"
gapminder %>% 
  select(year, lifeExp, country) %>% 
  arrange(year, lifeExp)
```

```
## # A tibble: 1,704 x 3
##     year lifeExp country      
##    <int>   <dbl> <fct>        
##  1  1952    28.8 Afghanistan  
##  2  1952    30   Gambia       
##  3  1952    30.0 Angola       
##  4  1952    30.3 Sierra Leone 
##  5  1952    31.3 Mozambique   
##  6  1952    32.0 Burkina Faso 
##  7  1952    32.5 Guinea-Bissau
##  8  1952    32.5 Yemen, Rep.  
##  9  1952    33.0 Somalia      
## 10  1952    33.6 Guinea       
## # ... with 1,694 more rows
```
…
# Transforming datasets

## `filter()`

1. Only take data with population greater than 100 million.


```r
gapminder %>%
  filter(pop > 100000000)
```

```
## # A tibble: 77 x 6
##    country    continent  year lifeExp       pop gdpPercap
##    <fct>      <fct>     <int>   <dbl>     <int>     <dbl>
##  1 Bangladesh Asia       1987    52.8 103764241      752.
##  2 Bangladesh Asia       1992    56.0 113704579      838.
##  3 Bangladesh Asia       1997    59.4 123315288      973.
##  4 Bangladesh Asia       2002    62.0 135656790     1136.
##  5 Bangladesh Asia       2007    64.1 150448339     1391.
##  6 Brazil     Americas   1972    59.5 100840058     4986.
##  7 Brazil     Americas   1977    61.5 114313951     6660.
##  8 Brazil     Americas   1982    63.3 128962939     7031.
##  9 Brazil     Americas   1987    65.2 142938076     7807.
## 10 Brazil     Americas   1992    67.1 155975974     6950.
## # ... with 67 more rows
```

2. Your turn: of those rows filtered from step 1., only take data from Asia.


```r
gapminder %>%
  filter(continent == "Asia", pop > 100000000)
```

```
## # A tibble: 52 x 6
##    country    continent  year lifeExp       pop gdpPercap
##    <fct>      <fct>     <int>   <dbl>     <int>     <dbl>
##  1 Bangladesh Asia       1987    52.8 103764241      752.
##  2 Bangladesh Asia       1992    56.0 113704579      838.
##  3 Bangladesh Asia       1997    59.4 123315288      973.
##  4 Bangladesh Asia       2002    62.0 135656790     1136.
##  5 Bangladesh Asia       2007    64.1 150448339     1391.
##  6 China      Asia       1952    44   556263527      400.
##  7 China      Asia       1957    50.5 637408000      576.
##  8 China      Asia       1962    44.5 665770000      488.
##  9 China      Asia       1967    58.4 754550000      613.
## 10 China      Asia       1972    63.1 862030000      677.
## # ... with 42 more rows
```
…
Let's get: 

- GDP by multiplying GPD per capita with population, and
- GDP in billions, named (`gdpBill`), rounded to two decimals.


```r
gapminder %>%
  mutate(GDP = pop * gdpPercap) %>%
  mutate(gdpBill= round(pop * gdpPercap, digits = 2))
```

```
## # A tibble: 1,704 x 8
##    country     continent  year lifeExp     pop gdpPercap         GDP     gdpBill
##    <fct>       <fct>     <int>   <dbl>   <int>     <dbl>       <dbl>       <dbl>
##  1 Afghanistan Asia       1952    28.8  8.43e6      779.     6.57e 9     6.57e 9
##  2 Afghanistan Asia       1957    30.3  9.24e6      821.     7.59e 9     7.59e 9
##  3 Afghanistan Asia       1962    32.0  1.03e7      853.     8.76e 9     8.76e 9
##  4 Afghanistan Asia       1967    34.0  1.15e7      836.     9.65e 9     9.65e 9
##  5 Afghanistan Asia       1972    36.1  1.31e7      740.     9.68e 9     9.68e 9
##  6 Afghanistan Asia       1977    38.4  1.49e7      786.     1.17e10     1.17e10
##  7 Afghanistan Asia       1982    39.9  1.29e7      978.     1.26e10     1.26e10
##  8 Afghanistan Asia       1987    40.8  1.39e7      852.     1.18e10     1.18e10
##  9 Afghanistan Asia       1992    41.7  1.63e7      649.     1.06e10     1.06e10
## 10 Afghanistan Asia       1997    41.8  2.22e7      635.     1.41e10     1.41e10
## # ... with 1,694 more rows
```

Notice the backwards compatibility! No need for loops!

Try the same thing, but with `transmute` (drops all other variables). 


```r
gapminder %>%
  transmute(gdp = pop * gdpPercap, gdpBill = round(gdp, 2))
```

```
## # A tibble: 1,704 x 2
##             gdp      gdpBill
##           <dbl>        <dbl>
##  1  6567086330.  6567086330.
##  2  7585448670.  7585448670.
##  3  8758855797.  8758855797.
##  4  9648014150.  9648014150.
##  5  9678553274.  9678553274.
##  6 11697659231. 11697659231.
##  7 12598563401. 12598563401.
##  8 11820990309. 11820990309.
##  9 10595901589. 10595901589.
## 10 14121995875. 14121995875.
## # ... with 1,694 more rows
```
…
```
## Error in if_else("country" == "Canada" && "year" == 1952, lifeExp = 68.8, : unused argument (lifeExp = 68.8)
```

Your turn: Make a new column called `cc` that pastes the country name followed by the continent, separated by a comma. (Hint: use the `paste` function with the `sep=", "` argument).


```r
  gapminder %>%
mutate(cc= paste(country, continent, sep = ","))
```

```
## # A tibble: 1,704 x 7
##    country     continent  year lifeExp      pop gdpPercap cc              
##    <fct>       <fct>     <int>   <dbl>    <int>     <dbl> <chr>           
##  1 Afghanistan Asia       1952    28.8  8425333      779. Afghanistan,Asia
##  2 Afghanistan Asia       1957    30.3  9240934      821. Afghanistan,Asia
##  3 Afghanistan Asia       1962    32.0 10267083      853. Afghanistan,Asia
##  4 Afghanistan Asia       1967    34.0 11537966      836. Afghanistan,Asia
##  5 Afghanistan Asia       1972    36.1 13079460      740. Afghanistan,Asia
##  6 Afghanistan Asia       1977    38.4 14880372      786. Afghanistan,Asia
##  7 Afghanistan Asia       1982    39.9 12881816      978. Afghanistan,Asia
##  8 Afghanistan Asia       1987    40.8 13867957      852. Afghanistan,Asia
##  9 Afghanistan Asia       1992    41.7 16317921      649. Afghanistan,Asia
## 10 Afghanistan Asia       1997    41.8 22227415      635. Afghanistan,Asia
## # ... with 1,694 more rows
```
…
# Exercises for grouped data frames

Let's do some practice with grouping (and ungrouping) and summarizing data frames!

1. (a) What's the minimum life expectancy for each continent and each year? (b) Add the corresponding country to the tibble, too. (c) Arrange by min life expectancy.


```r
gapminder %>% 
  group_by(continent, year, country) %>% 
  summarize(min_life = min(lifeExp))
```

```
## # A tibble: 1,704 x 4
## # Groups:   continent, year [60]
##    continent  year country                  min_life
##    <fct>     <int> <fct>                       <dbl>
##  1 Africa     1952 Algeria                      43.1
##  2 Africa     1952 Angola                       30.0
##  3 Africa     1952 Benin                        38.2
##  4 Africa     1952 Botswana                     47.6
##  5 Africa     1952 Burkina Faso                 32.0
##  6 Africa     1952 Burundi                      39.0
##  7 Africa     1952 Cameroon                     38.5
##  8 Africa     1952 Central African Republic     35.5
##  9 Africa     1952 Chad                         38.1
## 10 Africa     1952 Comoros                      40.7
## # ... with 1,694 more rows
```
2. Let's compute the mean Agreeableness score across items for each participant 
in the `psych::bfi` dataset. Be sure to handle `NA`!


```r
psych::bfi %>%
  as_tibble(psych::bfi) %>% 
  select(A1:A5) %>% 
  rowwise() %>% 
  mutate(A_mean = mean(c(A1, A2, A3, A4, A5), na.rm = TRUE)) %>% 
  ungroup(`NA`)
```

```
## # A tibble: 2,800 x 6
##       A1    A2    A3    A4    A5 A_mean
##    <int> <int> <int> <int> <int>  <dbl>
##  1     2     4     3     4     4    3.4
##  2     2     4     5     2     5    3.6
##  3     5     4     5     4     4    4.4
##  4     4     4     6     5     5    4.8
##  5     2     3     3     4     5    3.4
##  6     6     6     5     6     5    5.6
##  7     2     5     5     3     5    4  
##  8     4     3     1     5     1    2.8
##  9     4     3     6     3     3    3.8
## 10     2     5     6     6     5    4.8
## # ... with 2,790 more rows
```
…
```r
psych::bfi %>%
  as_tibble(psych::bfi) %>% 
  select(A1:A5) %>% 
  rowwise() %>% 
  mutate(A_mean = mean(c(A1, A2, A3, A4, A5), na.rm = TRUE)) %>% 
  mutate(mu = min(c(A1, A2, A3, A4, A5), na.rm = TRUE)) %>%
  mutate(sigma= sd(c(A1, A2, A3, A4, A5), na.rm = TRUE))
```

```
## Source: local data frame [2,800 x 8]
## Groups: <by row>
## 
## # A tibble: 2,800 x 8
##       A1    A2    A3    A4    A5 A_mean    mu sigma
##    <int> <int> <int> <int> <int>  <dbl> <int> <dbl>
##  1     2     4     3     4     4    3.4     2 0.894
##  2     2     4     5     2     5    3.6     2 1.52 
##  3     5     4     5     4     4    4.4     4 0.548
##  4     4     4     6     5     5    4.8     4 0.837
##  5     2     3     3     4     5    3.4     2 1.14 
##  6     6     6     5     6     5    5.6     5 0.548
##  7     2     5     5     3     5    4       2 1.41 
##  8     4     3     1     5     1    2.8     1 1.79 
##  9     4     3     6     3     3    3.8     3 1.30 
## 10     2     5     6     6     5    4.8     2 1.64 
## # ... with 2,790 more rows
```
```r
psych::bfi %>%
  as_tibble(psych::bfi) %>% 
  select(C1:C5) %>% 
  rowwise() %>% 
  mutate(C_mean = mean(c(C1, C2, C3, C4, C5), na.rm = TRUE)) %>% 
  mutate(mu= min(c(C1, C2, C3, C4, C5), na.rm = TRUE)) %>%
  mutate(sigma= sd(c(C1, C2, C3, C4, C5), na.rm = TRUE))
```

```
## Source: local data frame [2,800 x 8]
## Groups: <by row>
## 
## # A tibble: 2,800 x 8
##       C1    C2    C3    C4    C5 C_mean    mu sigma
##    <int> <int> <int> <int> <int>  <dbl> <int> <dbl>
##  1     2     3     3     4     4    3.2     2 0.837
##  2     5     4     4     3     4    4       3 0.707
##  3     4     5     4     2     5    4       2 1.22 
##  4     4     4     3     5     5    4.2     3 0.837
##  5     4     4     5     3     2    3.6     2 1.14 
##  6     6     6     6     1     3    4.4     1 2.30 
##  7     5     4     4     2     3    3.6     2 1.14 
##  8     3     2     4     2     4    3       2 1    
##  9     6     6     3     4     5    4.8     3 1.30 
## 10     6     5     6     2     1    4       1 2.35 
## # ... with 2,790 more rows
```
```r
psych::bfi %>%
  as_tibble(psych::bfi) %>% 
  select(E1:E5) %>% 
  rowwise() %>% 
  mutate(E_mean = mean(c(E1, E2, E3, E4, E5), na.rm = TRUE)) %>% 
  mutate(mu = min(c(E1, E2, E3, E4, E5), na.rm = TRUE)) %>%
  mutate(sigma= sd(c(E1, E2, E3, E4, E5), na.rm = TRUE))
```

```
## Source: local data frame [2,800 x 8]
## Groups: <by row>
## 
## # A tibble: 2,800 x 8
##       E1    E2    E3    E4    E5 E_mean    mu sigma
##    <int> <int> <int> <int> <int>  <dbl> <int> <dbl>
##  1     3     3     3     4     4   3.4      3 0.548
##  2     1     1     6     4     3   3        1 2.12 
##  3     2     4     4     4     5   3.8      2 1.10 
##  4     5     3     4     4     4   4        3 0.707
##  5     2     2     5     4     5   3.6      2 1.52 
##  6     2     1     6     5     6   4        1 2.35 
##  7     4     3     4     5     5   4.2      3 0.837
##  8     3     6     4     2     1   3.2      1 1.92 
##  9     5     3    NA     4     3   3.75     3 0.957
## 10     2     2     4     5     5   3.6      2 1.52 
## # ... with 2,790 more rows
```
```r
psych::bfi %>%
  as_tibble(psych::bfi) %>% 
  select(N1:N5) %>% 
  rowwise() %>% 
  mutate(N_mean = mean(c(N1, N2, N3, N4, N5), na.rm = TRUE)) %>% 
  mutate(mu = min(c(N1, N2, N3, N4, N5), na.rm = TRUE)) %>%
  mutate(sigma= sd(c(N1, N2, N3, N4, N5), na.rm = TRUE))
```

```
## Source: local data frame [2,800 x 8]
## Groups: <by row>
## 
## # A tibble: 2,800 x 8
##       N1    N2    N3    N4    N5 N_mean    mu sigma
##    <int> <int> <int> <int> <int>  <dbl> <int> <dbl>
##  1     3     4     2     2     3    2.8     2 0.837
##  2     3     3     3     5     5    3.8     3 1.10 
##  3     4     5     4     2     3    3.6     2 1.14 
##  4     2     5     2     4     1    2.8     1 1.64 
##  5     2     3     4     4     3    3.2     2 0.837
##  6     3     5     2     2     3    3       2 1.22 
##  7     1     2     2     1     1    1.4     1 0.548
##  8     6     3     2     6     4    4.2     2 1.79 
##  9     5     5     2     3     3    3.6     2 1.34 
## 10     5     5     5     2     4    4.2     2 1.30 
## # ... with 2,790 more rows
```
…
