…
1. (a) What's the minimum life expectancy for each continent and each year? 
   (b) Add the corresponding country to the tibble, too. 
   (c) Arrange by min life expectancy.


```r
gapminder %>% 
  group_by(continent, year) %>% 
  summarize(min_life = min(round(lifeExp, -1))) %>%
  arrange(min_life)
```

```
## # A tibble: 60 x 3
## # Groups:   continent [5]
##    continent  year min_life
##    <fct>     <int>    <dbl>
##  1 Africa     1992       20
##  2 Africa     1952       30
##  3 Africa     1957       30
##  4 Africa     1962       30
##  5 Africa     1967       30
##  6 Asia       1952       30
##  7 Asia       1957       30
##  8 Asia       1962       30
##  9 Asia       1967       30
## 10 Asia       1977       30
## # ... with 50 more rows
```
…
```r
psych::bfi %>%
  rownames_to_column(var = "id") %>%
  as_tibble() %>% 
  select(id, A1:A5) %>% 
  rowwise() %>% 
  mutate(A_mean = mean(c(A1, A2, A3, A4, A5), na.rm = TRUE)) %>% 
  ungroup()
```

```
## # A tibble: 2,800 x 7
##    id       A1    A2    A3    A4    A5 A_mean
##    <chr> <int> <int> <int> <int> <int>  <dbl>
##  1 61617     2     4     3     4     4    3.4
##  2 61618     2     4     5     2     5    3.6
##  3 61620     5     4     5     4     4    4.4
##  4 61621     4     4     6     5     5    4.8
##  5 61622     2     3     3     4     5    3.4
##  6 61623     6     6     5     6     5    5.6
##  7 61624     2     5     5     3     5    4  
##  8 61629     4     3     1     5     1    2.8
##  9 61630     4     3     6     3     3    3.8
## 10 61633     2     5     6     6     5    4.8
## # ... with 2,790 more rows
```
…
```r
psych::bfi %>%
  as_tibble(psych::bfi) %>% 
  select(C1:C5) %>% 
  rowwise() %>% 
  mutate(C_mean = mean(c(C1, C2, C3, C4, C5), na.rm = TRUE)) %>% 
  mutate(C_min = min(c(C1, C2, C3, C4, C5), na.rm = TRUE)) %>%
  mutate(C_sd = sd(c(C1, C2, C3, C4, C5), na.rm = TRUE))
```

```
## Source: local data frame [2,800 x 8]
## Groups: <by row>
## 
## # A tibble: 2,800 x 8
##       C1    C2    C3    C4    C5 C_mean C_min  C_sd
##    <int> <int> <int> <int> <int>  <dbl> <int> <dbl>
##  1     2     3     3     4     4    3.2     2 0.837
##  2     5     4     4     3     4    4       3 0.707
##  3     4     5     4     2     5    4       2 1.22 
##  4     4     4     3     5     5    4.2     3 0.837
##  5     4     4     5     3     2    3.6     2 1.14 
##  6     6     6     6     1     3    4.4     1 2.30 
##  7     5     4     4     2     3    3.6     2 1.14 
##  8     3     2     4     2     4    3       2 1    
##  9     6     6     3     4     5    4.8     3 1.30 
## 10     6     5     6     2     1    4       1 2.35 
## # ... with 2,790 more rows
```

Some functions are **vectorized**, so you don't need `rowwise()`. 
For example, `pmin()` computes the "parallel min" across the vectors it receives:


```r
psych::bfi %>% 
  as_tibble(psych::bfi) %>% 
  select(A1:A5) %>% 
  mutate(A_min = pmin(A1, A2, A3, A4, A5))
```

```
## # A tibble: 2,800 x 6
##       A1    A2    A3    A4    A5 A_min
##    <int> <int> <int> <int> <int> <int>
##  1     2     4     3     4     4     2
##  2     2     4     5     2     5     2
##  3     5     4     5     4     4     4
##  4     4     4     6     5     5     4
##  5     2     3     3     4     5     2
##  6     6     6     5     6     5     5
##  7     2     5     5     3     5     2
##  8     4     3     1     5     1     1
##  9     4     3     6     3     3     3
## 10     2     5     6     6     5     2
## # ... with 2,790 more rows
```
…
`rowMeans()` computes the mean of each row of a data frame. We can use it by
putting `select()` inside of `mutate()`:



```r
psych::bfi %>% 
  as_tibble() %>% 
  select(A1:A5) %>% 
  mutate(A_mn = rowMeans(select(., A1:A5)),
         A_mn2 = rowMeans(select(., starts_with("A", ignore.case = FALSE))))
```

```
## # A tibble: 2,800 x 7
##       A1    A2    A3    A4    A5  A_mn A_mn2
##    <int> <int> <int> <int> <int> <dbl> <dbl>
##  1     2     4     3     4     4   3.4   3.4
##  2     2     4     5     2     5   3.6   3.6
##  3     5     4     5     4     4   4.4   4.4
##  4     4     4     6     5     5   4.8   4.8
##  5     2     3     3     4     5   3.4   3.4
##  6     6     6     5     6     5   5.6   5.6
##  7     2     5     5     3     5   4     4  
##  8     4     3     1     5     1   2.8   2.8
##  9     4     3     6     3     3   3.8   3.8
## 10     2     5     6     6     5   4.8   4.8
## # ... with 2,790 more rows
```
…
