…
## Exercise 1: `singer`

The package `singer` comes with two smallish data frames about songs. 
Let's take a look at them (after minor modifications by renaming and shuffling):


```r
(time <- as_tibble(songs) %>% 
   rename(song = title))
```

```
## # A tibble: 22 x 3
##    song                             artist_name      year
##    <chr>                            <chr>           <dbl>
##  1 Corduroy                         Pearl Jam        1994
##  2 Grievance                        Pearl Jam        2000
##  3 Stupidmop                        Pearl Jam        1994
##  4 Present Tense                    Pearl Jam        1996
##  5 MFC                              Pearl Jam        1998
##  6 Lukin                            Pearl Jam        1996
##  7 It's Lulu                        The Boo Radleys  1995
##  8 Sparrow                          The Boo Radleys  1992
##  9 Martin_ Doom! It's Seven O'Clock The Boo Radleys  1995
## 10 Leaves And Sand                  The Boo Radleys  1993
## # ... with 12 more rows
```
…
2. Go ahead and add the corresponding albums to the `time` tibble, being sure to 
   preserve rows even if album info is not readily available.


```r
time %>% 
  left_join(select(album, -city), by = c("song", "artist_name"))
```

```
## # A tibble: 22 x 4
##    song                        artist_name     year album                       
##    <chr>                       <chr>          <dbl> <chr>                       
##  1 Corduroy                    Pearl Jam       1994 <NA>                        
##  2 Grievance                   Pearl Jam       2000 Binaural                    
##  3 Stupidmop                   Pearl Jam       1994 Vitalogy                    
##  4 Present Tense               Pearl Jam       1996 No Code                     
##  5 MFC                         Pearl Jam       1998 Live On Two Legs            
##  6 Lukin                       Pearl Jam       1996 Seattle Washington November~
##  7 It's Lulu                   The Boo Radle~  1995 Best Of                     
##  8 Sparrow                     The Boo Radle~  1992 Everything's Alright Forever
##  9 Martin_ Doom! It's Seven O~ The Boo Radle~  1995 <NA>                        
## 10 Leaves And Sand             The Boo Radle~  1993 <NA>                        
## # ... with 12 more rows
```
…
5. You've come across these two tibbles, and just wish all the info was 
   available in one tibble. What would you do?


```r
time %>% 
  full_join(select(album, -artist_name), by = "song")
```

```
## # A tibble: 23 x 5
##    song                  artist_name     year city         album                
##    <chr>                 <chr>          <dbl> <chr>        <chr>                
##  1 Corduroy              Pearl Jam       1994 <NA>         <NA>                 
##  2 Grievance             Pearl Jam       2000 Seattle, WA  Binaural             
##  3 Stupidmop             Pearl Jam       1994 Seattle, WA  Vitalogy             
##  4 Present Tense         Pearl Jam       1996 Seattle, WA  No Code              
##  5 MFC                   Pearl Jam       1998 Seattle, WA  Live On Two Legs     
##  6 Lukin                 Pearl Jam       1996 Seattle, WA  Seattle Washington N~
##  7 It's Lulu             The Boo Radle~  1995 Liverpool, ~ Best Of              
##  8 Sparrow               The Boo Radle~  1992 Liverpool, ~ Everything's Alright~
##  9 Martin_ Doom! It's S~ The Boo Radle~  1995 <NA>         <NA>                 
## 10 Leaves And Sand       The Boo Radle~  1993 <NA>         <NA>                 
## # ... with 13 more rows
```
…
```r
library(nycflights13)
```


```r
flights %>%
full_join(airlines, by = "carrier") %>%
  full_join(select(weather, -year,-month, -day, -hour), by = c("origin", "time_hour")) %>%
  full_join(planes, by = "tailnum") %>%
  full_join(rename(airports, "origin" = "faa"), by= "origin") 
```

```
## # A tibble: 344,968 x 44
##    year.x month   day dep_time sched_dep_time dep_delay arr_time sched_arr_time
##     <int> <int> <int>    <int>          <int>     <dbl>    <int>          <int>
##  1   2013     1     1      517            515         2      830            819
##  2   2013     1     1      533            529         4      850            830
##  3   2013     1     1      542            540         2      923            850
##  4   2013     1     1      544            545        -1     1004           1022
##  5   2013     1     1      554            600        -6      812            837
##  6   2013     1     1      554            558        -4      740            728
##  7   2013     1     1      555            600        -5      913            854
##  8   2013     1     1      557            600        -3      709            723
##  9   2013     1     1      557            600        -3      838            846
## 10   2013     1     1      558            600        -2      753            745
## # ... with 344,958 more rows, and 36 more variables: arr_delay <dbl>,
## #   carrier <chr>, flight <int>, tailnum <chr>, origin <chr>, dest <chr>,
## #   air_time <dbl>, distance <dbl>, hour <dbl>, minute <dbl>, time_hour <dttm>,
## #   name.x <chr>, temp <dbl>, dewp <dbl>, humid <dbl>, wind_dir <dbl>,
## #   wind_speed <dbl>, wind_gust <dbl>, precip <dbl>, pressure <dbl>,
## #   visib <dbl>, year.y <int>, type <chr>, manufacturer <chr>, model <chr>,
## #   engines <int>, seats <int>, speed <int>, engine <chr>, name.y <chr>,
## #   lat <dbl>, lon <dbl>, alt <dbl>, tz <dbl>, dst <chr>, tzone <chr>
```
